{"properties": [{
  "name": "retry.maxAttempts",
  "type": "java.lang.String",
  "description": "A description for 'retry.maxAttempts'"
}, {
  "name": "retry.maxDelay",
  "type": "java.lang.String",
  "description": "A description for 'retry.maxDelay'"
}]}